{
  "version": 1,
  "quizes": [
    {
      "id": "1",
      "title": "O letisku a letoch",
      "reward": 50,
      "questions": [
        {
          "order": 1,
          "text": "Do ktorej destinácie sa lieta z košického letiska najčastejšie?",
          "options": [
            {
              "name": "Viedeň",
              "is_correct": false
            },
            {
              "name": "Praha",
              "is_correct": true
            },
            {
              "name": "Londýn",
              "is_correct": false
            },
            {
              "name": "Varšava",
              "is_correct": false
            }
          ]
        },
        {
          "order": 2,
          "text": "Ktorá letecká spoločnosť nelieta z košického letiska?",
          "options": [
            {
              "name": "Austrian Airlines",
              "is_correct": false
            },
            {
              "name": "Easy Jet",
              "is_correct": true
            },
            {
              "name": "Turkish Airlines",
              "is_correct": false
            },
            {
              "name": "LOT Polish Airlines",
              "is_correct": false
            }
          ]
        },
        {
          "order": 3,
          "text": "Ktorá destinácia sa lieta z košického letiska každý deň?",
          "options": [
            {
              "name": "Istanbul",
              "is_correct": false
            },
            {
              "name": "Tel Aviv",
              "is_correct": false
            },
            {
              "name": "Londýn",
              "is_correct": true
            },
            {
              "name": "Doncaster",
              "is_correct": false
            }
          ]
        },
        {
          "order": 4,
          "text": "Koľko charterových letov je naplánovaných na letnú sezónu 2018?",
          "options": [
            {
              "name": "46",
              "is_correct": true
            },
            {
              "name": "36",
              "is_correct": false
            },
            {
              "name": "26",
              "is_correct": false
            },
            {
              "name": "16",
              "is_correct": false
            }
          ]
        },
        {
          "order": 5,
          "text": "Koľko možností parkovania - parkovísk sa nachádza na letisku?",
          "options": [
            {
              "name": "1",
              "is_correct": false
            },
            {
              "name": "3",
              "is_correct": true
            },
            {
              "name": "5",
              "is_correct": false
            },
            {
              "name": "8",
              "is_correct": false
            }
          ]
        },
        {
          "order": 6,
          "text": "Koľko prevádzok autopožičovní sa nachádza v priestoroch letiska?",
          "options": [
            {
              "name": "2",
              "is_correct": false
            },
            {
              "name": "4",
              "is_correct": false
            },
            {
              "name": "5",
              "is_correct": false
            },
            {
              "name": "7",
              "is_correct": true
            }
          ]
        },
        {
          "order": 7,
          "text": "Ktorá pravidelná autobusová linka zabezpečuje spojenie medzi železničnou stanicou a letiskom?",
          "options": [
            {
              "name": "linka 11",
              "is_correct": false
            },
            {
              "name": "linka 23",
              "is_correct": true
            },
            {
              "name": "linka 71",
              "is_correct": false
            },
            {
              "name": "linka 72",
              "is_correct": false
            }
          ]
        },
        {
          "order": 8,
          "text": "Koľko stojí vstup do Business salónika?",
          "options": [
            {
              "name": "9 eur",
              "is_correct": false
            },
            {
              "name": "19 eur",
              "is_correct": true
            },
            {
              "name": "29 eur",
              "is_correct": false
            },
            {
              "name": "39 eur",
              "is_correct": false
            }
          ]
        },
        {
          "order": 9,
          "text": "Aký je povolený maximálny objem kvapalín na osobu (v uzatvárateľnom priesvitnom igelitovom obale rozdelených po 100ml)?",
          "options": [
            {
              "name": "0,5 liter",
              "is_correct": false
            },
            {
              "name": "1 liter",
              "is_correct": true
            },
            {
              "name": "2 litre",
              "is_correct": false
            },
            {
              "name": "3 litre",
              "is_correct": false
            }
          ]
        },
        {
          "order": 10,
          "text": "Aký medziročný nárast cestujúcich zaznamenalo košické letisko za obdobie január - marec 2018?",
          "options": [
            {
              "name": "5%",
              "is_correct": false
            },
            {
              "name": "10%",
              "is_correct": false
            },
            {
              "name": "20%",
              "is_correct": true
            },
            {
              "name": "30%",
              "is_correct": false
            }
          ]
        }
      ]
    }
  ]
}
