{
  "version": 1, 
  "rewards": [
    {
      "id": "1",
      "name": "Malé gumové lietadielko",
      "price": 100,
      "thumbnail": "http://www.airportkosice.sk/sites/default/files/styles/gallery_thumbnail/public/2017-08/logo_0.png"
    },
    {
      "id": "2",
      "name": "Plážová lopta",
      "price": 130,
      "thumbnail": "http://www.airportkosice.sk/sites/default/files/styles/gallery_thumbnail/public/2017-08/logo_0.png"
    },
    {
      "id": "3",
      "name": "Sada na kreslenie",
      "price": 150,
      "thumbnail": "http://www.airportkosice.sk/sites/default/files/styles/gallery_thumbnail/public/2017-08/logo_0.png"
    },
    {
      "id": "4",
      "name": "Hrnček",
      "price": 100,
      "thumbnail": "http://www.airportkosice.sk/sites/default/files/styles/gallery_thumbnail/public/2017-08/logo_0.png"
    },
    {
      "id": "5",
      "name": "Cestovný set",
      "price": 200,
      "thumbnail": "http://www.airportkosice.sk/sites/default/files/styles/gallery_thumbnail/public/2017-08/logo_0.png"
    },
    {
      "id": "6",
      "name": "USB",
      "price": 300,
      "thumbnail": "http://www.airportkosice.sk/sites/default/files/styles/gallery_thumbnail/public/2017-08/logo_0.png"
    }
  ]
}